[
 {
   "Nombre":"Cine Colombia Mercurio",
   "UbicacionGeografica(Lat|Long)":"4.71666633|-74.24922255",
   "Franquicia":"Cine Colombia"
 },
 {
   "Nombre":"Cine Colombia Andino",
   "UbicacionGeografica(Lat|Long)":"4.74564072|-73.98679828",
   "Franquicia":"Cine Colombia"
 },
 {
   "Nombre":"Cine Colombia Avenida Chile",
   "UbicacionGeografica(Lat|Long)":"4.71032219|-74.06365906",
   "Franquicia":"Cine Colombia"
 },
 {
   "Nombre":"Cine Colombia C.C. Plaza Central",
   "UbicacionGeografica(Lat|Long)":"4.54644431|-74.11667567",
   "Franquicia":"Cine Colombia"
 },
 {
   "Nombre":"Cine Colombia Cedritos",
   "UbicacionGeografica(Lat|Long)":"4.81287577|-74.16845457",
   "Franquicia":"Cine Colombia"
 },
 {
   "Nombre":"Cine Colombia Centro Chía",
   "UbicacionGeografica(Lat|Long)":"4.72534137|-74.12918572",
   "Franquicia":"Cine Colombia"
 },
 {
   "Nombre":"Cine Colombia Centro Mayor",
   "UbicacionGeografica(Lat|Long)":"4.6709408|-73.91995992",
   "Franquicia":"Cine Colombia"
 },
 {
   "Nombre":"Cine Colombia Embajador",
   "UbicacionGeografica(Lat|Long)":"4.65946912|-74.19205062",
   "Franquicia":"Cine Colombia"
 },
 {
   "Nombre":"Cine Colombia Galerías",
   "UbicacionGeografica(Lat|Long)":"4.70233145|-74.09746479",
   "Franquicia":"Cine Colombia"
 },
 {
   "Nombre":"Cine Colombia Gran Estación",
   "UbicacionGeografica(Lat|Long)":"4.87571726|-74.06723136",
   "Franquicia":"Cine Colombia"
 },
 {
   "Nombre":"Cine Colombia Hacienda Santa Bárbara",
   "UbicacionGeografica(Lat|Long)":"4.61634195|-74.09585044",
   "Franquicia":"Cine Colombia"
 },
 {
   "Nombre":"Cine Colombia Iserra 100",
   "UbicacionGeografica(Lat|Long)":"4.75901182|-74.03100515",
   "Franquicia":"Cine Colombia"
 },
 {
   "Nombre":"Cine Colombia Las Américas",
   "UbicacionGeografica(Lat|Long)":"4.85255323|-74.08103965",
   "Franquicia":"Cine Colombia"
 },
 {
   "Nombre":"Cine Colombia Metrópolis",
   "UbicacionGeografica(Lat|Long)":"4.59652432|-74.00860874",
   "Franquicia":"Cine Colombia"
 },
 {
   "Nombre":"Cine Colombia Portal 80",
   "UbicacionGeografica(Lat|Long)":"4.78112406|-74.21100697",
   "Franquicia":"Cine Colombia"
 },
 {
   "Nombre":"Cine Colombia Portoalegre",
   "UbicacionGeografica(Lat|Long)":"4.84469472|-74.13234777",
   "Franquicia":"Cine Colombia"
 },
 {
   "Nombre":"Cine Colombia Santafé",
   "UbicacionGeografica(Lat|Long)":"4.78981113|-74.12928882",
   "Franquicia":"Cine Colombia"
 },
 {
   "Nombre":"Cine Colombia Titán Plaza",
   "UbicacionGeografica(Lat|Long)":"4.6467143|-74.14836647",
   "Franquicia":"Cine Colombia"
 },
 {
   "Nombre":"Cine Colombia Unicentro",
   "UbicacionGeografica(Lat|Long)":"4.63743406|-73.99461028",
   "Franquicia":"Cine Colombia"
 },
 {
   "Nombre":"Cineland Mi Centro",
   "UbicacionGeografica(Lat|Long)":"4.71622825|-74.19443068",
   "Franquicia":"Cineland Mi Centro"
 },
 {
   "Nombre":"Cinema Paraíso",
   "UbicacionGeografica(Lat|Long)":"4.78049038|-74.16472574",
   "Franquicia":"Cinema Paraíso"
 },
 {
   "Nombre":"Cinemanía",
   "UbicacionGeografica(Lat|Long)":"4.72164771|-74.09328456",
   "Franquicia":"Cinemanía"
 },
 {
   "Nombre":"Cinemark Atlantis",
   "UbicacionGeografica(Lat|Long)":"4.7740737|-74.21923253",
   "Franquicia":"Cinemark"
 },
 {
   "Nombre":"Cinemark Cafam Floresta",
   "UbicacionGeografica(Lat|Long)":"4.88277583|-74.08494599",
   "Franquicia":"Cinemark"
 },
 {
   "Nombre":"Cinemark MiCentro El Porvenir",
   "UbicacionGeografica(Lat|Long)":"4.85341315|-74.03982921",
   "Franquicia":"Cinemark"
 },
 {
   "Nombre":"Cinemark Plaza Imperial",
   "UbicacionGeografica(Lat|Long)":"4.69100565|-74.21698322",
   "Franquicia":"Cinemark"
 },
 {
   "Nombre":"Cinemark San Rafael",
   "UbicacionGeografica(Lat|Long)":"4.68500157|-74.00189122",
   "Franquicia":"Cinemark"
 },
 {
   "Nombre":"Cinemark Trébolis El Porvenir",
   "UbicacionGeografica(Lat|Long)":"4.75594632|-74.16717515",
   "Franquicia":"Cinemark"
 },
 {
   "Nombre":"Cinépolis Calima",
   "UbicacionGeografica(Lat|Long)":"4.57006814|-74.13627059",
   "Franquicia":"Cinépolis"
 },
 {
   "Nombre":"Cinépolis Fontanar",
   "UbicacionGeografica(Lat|Long)":"4.68816165|-74.00773859",
   "Franquicia":"Cinépolis"
 },
 {
   "Nombre":"Cinépolis Hayuelos",
   "UbicacionGeografica(Lat|Long)":"4.78715752|-74.00969062",
   "Franquicia":"Cinépolis"
 },
 {
   "Nombre":"Procinal - IMAX Plaza de las Américas",
   "UbicacionGeografica(Lat|Long)":"4.87517201|-74.02312983",
   "Franquicia":"Procinal"
 },
 {
   "Nombre":"Procinal Bima",
   "UbicacionGeografica(Lat|Long)":"4.80342482|-74.13798565",
   "Franquicia":"Procinal"
 },
 {
   "Nombre":"Procinal Bulevar Niza",
   "UbicacionGeografica(Lat|Long)":"4.79723562|-74.00280226",
   "Franquicia":"Procinal"
 },
 {
   "Nombre":"Procinal Centro Suba",
   "UbicacionGeografica(Lat|Long)":"4.63701161|-74.14256589",
   "Franquicia":"Procinal"
 },
 {
   "Nombre":"Procinal Ciudad Tunal",
   "UbicacionGeografica(Lat|Long)":"4.77976002|-73.96640084",
   "Franquicia":"Procinal"
 },
 {
   "Nombre":"Procinal Palatino",
   "UbicacionGeografica(Lat|Long)":"4.70924629|-74.23529168",
   "Franquicia":"Procinal"
 },
 {
   "Nombre":"Procinal Plaza de las Américas",
   "UbicacionGeografica(Lat|Long)":"4.780092|-74.0719814",
   "Franquicia":"Procinal"
 },
 {
   "Nombre":"Procinal Portal de la Sabana",
   "UbicacionGeografica(Lat|Long)":"4.80892339|-73.93586949",
   "Franquicia":"Procinal"
 },
 {
   "Nombre":"Procinal Salitre",
   "UbicacionGeografica(Lat|Long)":"4.64670293|-74.15606379",
   "Franquicia":"Procinal"
 },
 {
   "Nombre":"Procinal Tintal Plaza",
   "UbicacionGeografica(Lat|Long)":"4.87214915|-74.02579692",
   "Franquicia":"Procinal"
 },
 {
   "Nombre":"Procinal Unicentro de Occidente",
   "UbicacionGeografica(Lat|Long)":"4.73179314|-74.11986374",
   "Franquicia":"Procinal"
 },
 {
   "Nombre":"Procinal Unisur",
   "UbicacionGeografica(Lat|Long)":"4.60081296|-74.01400333",
   "Franquicia":"Procinal"
 },
 {
   "Nombre":"Royal Films Altavista",
   "UbicacionGeografica(Lat|Long)":"4.81456162|-73.95315899",
   "Franquicia":"Royal Films"
 },
 {
   "Nombre":"Royal Films Eco Plaza",
   "UbicacionGeografica(Lat|Long)":"4.71033419|-74.06415906",
   "Franquicia":"Royal Films"
 },
 {
   "Nombre":"Royal Films San Martín",
   "UbicacionGeografica(Lat|Long)":"4.54644431|-74.11927568",
   "Franquicia":"Royal Films"
 }
]
